D:\OCB\projects\core-dto\src\main\java\com\ocb\oma\validation\impl\RecurringPeriodValidator.java
D:\OCB\projects\core-dto\src\main\java\com\ocb\oma\dto\DestAccountRestrictionDTO.java
D:\OCB\projects\core-dto\src\main\java\com\ocb\oma\dto\SampleUserGroupDTO.java
D:\OCB\projects\core-dto\src\main\java\com\ocb\oma\validation\impl\DigitsValidator.java
D:\OCB\projects\core-dto\src\main\java\com\ocb\oma\dto\CreateDepositOutputDTO.java
D:\OCB\projects\core-dto\src\main\java\com\ocb\oma\validation\PhoneNumber.java
D:\OCB\projects\core-dto\src\main\java\com\ocb\oma\dto\PaymentDTO.java
D:\OCB\projects\core-dto\src\main\java\com\ocb\oma\validation\Digits.java
D:\OCB\projects\core-dto\src\main\java\com\ocb\oma\validation\UserMobileDeviceId.java
D:\OCB\projects\core-dto\src\main\java\com\ocb\oma\dto\BasketTransferDTO.java
D:\OCB\projects\core-dto\src\main\java\com\ocb\oma\oomni\dto\CardAccountEntryQueryDTO.java
D:\OCB\projects\core-dto\src\main\java\com\ocb\oma\dto\LastInfoDTO.java
D:\OCB\projects\core-dto\src\main\java\com\ocb\oma\oomni\dto\PostAddBasketDTO.java
D:\OCB\projects\core-dto\src\main\java\com\ocb\oma\exception\OmaException.java
D:\OCB\projects\core-dto\src\main\java\com\ocb\oma\dto\RegisterBankingProductOnlineDTO.java
D:\OCB\projects\core-dto\src\main\java\com\ocb\oma\oomni\dto\DepositOfferAccountsDTO.java
D:\OCB\projects\core-dto\src\main\java\com\ocb\oma\dto\input\StandingOrderInputDTO.java
D:\OCB\projects\core-dto\src\main\java\com\ocb\oma\dto\OtpAuthorizeMethod.java
D:\OCB\projects\core-dto\src\main\java\com\ocb\oma\dto\TuitionPaymentDTO.java
D:\OCB\projects\core-dto\src\main\java\com\ocb\oma\dto\input\GetBillInputDTO.java
D:\OCB\projects\core-dto\src\main\java\com\ocb\oma\validation\PostPaymentInputValid.java
D:\OCB\projects\core-dto\src\main\java\com\ocb\oma\dto\TemplateType.java
D:\OCB\projects\core-dto\src\main\java\com\ocb\oma\dto\TuitionFeeDTO.java
D:\OCB\projects\core-dto\src\main\java\com\ocb\oma\validation\CustomerId.java
D:\OCB\projects\core-dto\src\main\java\com\ocb\oma\validation\CardAccount.java
D:\OCB\projects\core-dto\src\main\java\com\ocb\oma\validation\impl\PhoneValidator.java
D:\OCB\projects\core-dto\src\main\java\com\ocb\oma\validation\InIntegerValues.java
D:\OCB\projects\core-dto\src\main\java\com\ocb\oma\validation\DateRange.java
D:\OCB\projects\core-dto\src\main\java\com\ocb\oma\oomni\dto\StandingOrderOutputDTO.java
D:\OCB\projects\core-dto\src\main\java\com\ocb\oma\dto\OmniResultCode.java
D:\OCB\projects\core-dto\src\main\java\com\ocb\oma\oomni\dto\PrepaidPhoneDTO.java
D:\OCB\projects\core-dto\src\main\java\com\ocb\oma\oomni\dto\OldTransactionInfo.java
D:\OCB\projects\core-dto\src\main\java\com\ocb\oma\dto\AccountDetails.java
D:\OCB\projects\core-dto\src\main\java\com\ocb\oma\oomni\dto\CardAccountEntryDTO.java
D:\OCB\projects\core-dto\src\main\java\com\ocb\oma\validation\GiftCardInsertDTOValid.java
D:\OCB\projects\core-dto\src\main\java\com\ocb\oma\dto\input\PostPaymentInputDTO.java
D:\OCB\projects\core-dto\src\main\java\com\ocb\oma\dto\newFo\NewFoCustomerInfo.java
D:\OCB\projects\core-dto\src\main\java\com\ocb\oma\dto\ChangeLimitDTO.java
D:\OCB\projects\core-dto\src\main\java\com\ocb\oma\validation\impl\PeriodUnitValidator.java
D:\OCB\projects\core-dto\src\main\java\com\ocb\oma\dto\input\CardStatementsInputDTO.java
D:\OCB\projects\core-dto\src\main\java\com\ocb\oma\oomni\ChangeUsernameOutput.java
D:\OCB\projects\core-dto\src\main\java\com\ocb\oma\dto\LogDTO.java
D:\OCB\projects\core-dto\src\main\java\com\ocb\oma\dto\newFo\NewFoTransactionInfo.java
D:\OCB\projects\core-dto\src\main\java\com\ocb\oma\validation\OcbDepositAccountNo.java
D:\OCB\projects\core-dto\src\main\java\com\ocb\oma\dto\input\CriteriaDTO.java
D:\OCB\projects\core-dto\src\main\java\com\ocb\oma\dto\input\TransHistoryRequestDTO.java
D:\OCB\projects\core-dto\src\main\java\com\ocb\oma\dto\input\PostAuthActivateCardInput.java
D:\OCB\projects\core-dto\src\main\java\com\ocb\oma\dto\AddressDTO.java
D:\OCB\projects\core-dto\src\main\java\com\ocb\oma\dto\OperationStatus.java
D:\OCB\projects\core-dto\src\main\java\com\ocb\oma\dto\TestDTO.java
D:\OCB\projects\core-dto\src\main\java\com\ocb\oma\oomni\dto\CardPaymentInfoOutput.java
D:\OCB\projects\core-dto\src\main\java\com\ocb\oma\dto\CampainSlot.java
D:\OCB\projects\core-dto\src\main\java\com\ocb\oma\validation\AccountName.java
D:\OCB\projects\core-dto\src\main\java\com\ocb\oma\validation\CardTypeCode.java
D:\OCB\projects\core-dto\src\main\java\com\ocb\oma\dto\newFo\NewFoAddress.java
D:\OCB\projects\core-dto\src\main\java\com\ocb\oma\dto\StatusesAvatar.java
D:\OCB\projects\core-dto\src\main\java\com\ocb\oma\oomni\dto\QRcodeInfoOutputDTO.java
D:\OCB\projects\core-dto\src\main\java\com\ocb\oma\dto\input\CriteriaAssignDTO.java
D:\OCB\projects\core-dto\src\main\java\com\ocb\oma\oomni\dto\FrequencyDTO.java
D:\OCB\projects\core-dto\src\main\java\com\ocb\oma\resources\model\TuitionFeeObject.java
D:\OCB\projects\core-dto\src\main\java\com\ocb\oma\dto\RecipientOCBDTO.java
D:\OCB\projects\core-dto\src\main\java\com\ocb\oma\dto\newFo\NewFoOnlineService.java
D:\OCB\projects\core-dto\src\main\java\com\ocb\oma\dto\input\ConfigStatusEcommerceCardInput.java
D:\OCB\projects\core-dto\src\main\java\com\ocb\oma\validation\impl\OcbLoanAccountNoValidator.java
D:\OCB\projects\core-dto\src\main\java\com\ocb\oma\validation\BillCode.java
D:\OCB\projects\core-dto\src\main\java\com\ocb\oma\dto\CardTypeDTO.java
D:\OCB\projects\core-dto\src\main\java\com\ocb\oma\validation\impl\Validator.java
D:\OCB\projects\core-dto\src\main\java\com\ocb\oma\validation\SummaryPeriod.java
D:\OCB\projects\core-dto\src\main\java\com\ocb\oma\oomni\dto\BillInfoDTO.java
D:\OCB\projects\core-dto\src\main\java\com\ocb\oma\validation\ExternalAccountNo.java
D:\OCB\projects\core-dto\src\main\java\com\ocb\oma\oomni\dto\BillPaymentServiceDTO.java
D:\OCB\projects\core-dto\src\main\java\com\ocb\oma\dto\PaymentCardAnotherOuputDTO.java
D:\OCB\projects\core-dto\src\main\java\com\ocb\oma\oomni\dto\OldAuthenticateResponseDTO.java
D:\OCB\projects\core-dto\src\main\java\com\ocb\oma\validation\PaymentSetting.java
D:\OCB\projects\core-dto\src\main\java\com\ocb\oma\validation\CIF.java
D:\OCB\projects\core-dto\src\main\java\com\ocb\oma\dto\CardInfoDTO.java
D:\OCB\projects\core-dto\src\main\java\com\ocb\oma\oomni\dto\BillPaymentItem.java
D:\OCB\projects\core-dto\src\main\java\com\ocb\oma\oomni\dto\StandingOrderDTO.java
D:\OCB\projects\core-dto\src\main\java\com\ocb\oma\resources\model\OmniCardType.java
D:\OCB\projects\core-dto\src\main\java\com\ocb\oma\dto\input\GetListOfBillTransactionsInputDTO.java
D:\OCB\projects\core-dto\src\main\java\com\ocb\oma\resources\model\OmniGiftCardReceiver.java
D:\OCB\projects\core-dto\src\main\java\com\ocb\oma\validation\AmountLimit.java
D:\OCB\projects\core-dto\src\main\java\com\ocb\oma\dto\CorporateInfoDTO.java
D:\OCB\projects\core-dto\src\main\java\com\ocb\oma\validation\impl\MinimalTransferAmountValidator.java
D:\OCB\projects\core-dto\src\main\java\com\ocb\oma\dto\CardDetailByCardIdDTO.java
D:\OCB\projects\core-dto\src\main\java\com\ocb\oma\oomni\dto\CardAutoRepaymentDTO.java
D:\OCB\projects\core-dto\src\main\java\com\ocb\oma\resources\model\OmniGiftCard.java
D:\OCB\projects\core-dto\src\main\java\com\ocb\oma\validation\InterestPaymentMethod.java
D:\OCB\projects\core-dto\src\main\java\com\ocb\oma\dto\input\PostBasketsInput.java
D:\OCB\projects\core-dto\src\main\java\com\ocb\oma\validation\TransferAutoBillDTOValid.java
D:\OCB\projects\core-dto\src\main\java\com\ocb\oma\validation\impl\AccountIdValidator.java
D:\OCB\projects\core-dto\src\main\java\com\ocb\oma\oomni\dto\CardDetailByIdDTO.java
D:\OCB\projects\core-dto\src\main\java\com\ocb\oma\dto\input\GetChallengeCodeInputDTO.java
D:\OCB\projects\core-dto\src\main\java\com\ocb\oma\oomni\dto\AuthActivateCardDTO.java
D:\OCB\projects\core-dto\src\main\java\com\ocb\oma\resources\model\OmniLink.java
D:\OCB\projects\core-dto\src\main\java\com\ocb\oma\validation\impl\BranchCodeValidator.java
D:\OCB\projects\core-dto\src\main\java\com\ocb\oma\validation\DebitAccount.java
D:\OCB\projects\core-dto\src\main\java\com\ocb\oma\oomni\dto\CardAccountAutoRepaymentDTO.java
D:\OCB\projects\core-dto\src\main\java\com\ocb\oma\oomni\dto\BillDetailDTO.java
D:\OCB\projects\core-dto\src\main\java\com\ocb\oma\dto\input\PaymentCardAnotherInputDTO.java
D:\OCB\projects\core-dto\src\main\java\com\ocb\oma\dto\RecipientInputDTO.java
D:\OCB\projects\core-dto\src\main\java\com\ocb\oma\oomni\dto\ChangePasswordDTO.java
D:\OCB\projects\core-dto\src\main\java\com\ocb\oma\dto\TransferAutoBillDTO.java
D:\OCB\projects\core-dto\src\main\java\com\ocb\oma\dto\AccountInfo.java
D:\OCB\projects\core-dto\src\main\java\com\ocb\oma\dto\AvatarInfoDTO.java
D:\OCB\projects\core-dto\src\main\java\com\ocb\oma\dto\MessageConstant.java
D:\OCB\projects\core-dto\src\main\java\com\ocb\oma\dto\DepositInterestRateDTO.java
D:\OCB\projects\core-dto\src\main\java\com\ocb\oma\dto\AccountLimitDTO.java
D:\OCB\projects\core-dto\src\main\java\com\ocb\oma\dto\WebLimitDTO.java
D:\OCB\projects\core-dto\src\main\java\com\ocb\oma\dto\CustomerPersonalInfoDTO.java
D:\OCB\projects\core-dto\src\main\java\com\ocb\oma\oomni\dto\AccountCapitalDTO.java
D:\OCB\projects\core-dto\src\main\java\com\ocb\oma\dto\input\VetifyUserDeviceDTO.java
D:\OCB\projects\core-dto\src\main\java\com\ocb\oma\dto\TransactionHistoryDTO.java
D:\OCB\projects\core-dto\src\main\java\com\ocb\oma\dto\input\ChangeLimitDirectlyInput.java
D:\OCB\projects\core-dto\src\main\java\com\ocb\oma\dto\MyFinancialDTO.java
D:\OCB\projects\core-dto\src\main\java\com\ocb\oma\resources\model\UserDeviceToken.java
D:\OCB\projects\core-dto\src\main\java\com\ocb\oma\entity\AbstractEntity.java
D:\OCB\projects\core-dto\src\main\java\com\ocb\oma\dto\ExchangeRateDTO.java
D:\OCB\projects\core-dto\src\main\java\com\ocb\oma\dto\TransactionType.java
D:\OCB\projects\core-dto\src\main\java\com\ocb\oma\dto\OwnersDTO.java
D:\OCB\projects\core-dto\src\main\java\com\ocb\oma\oomni\dto\AccountSourceDTO.java
D:\OCB\projects\core-dto\src\main\java\com\ocb\oma\dto\CustomerInfoDTO.java
D:\OCB\projects\core-dto\src\main\java\com\ocb\oma\validation\PeriodUnit.java
D:\OCB\projects\core-dto\src\main\java\com\ocb\oma\dto\MailMessageDTO.java
D:\OCB\projects\core-dto\src\main\java\com\ocb\oma\oomni\dto\CreateAutoBillTransferDirectlyDTO.java
D:\OCB\projects\core-dto\src\main\java\com\ocb\oma\constants\PostPaymentErrors.java
D:\OCB\projects\core-dto\src\main\java\com\ocb\oma\resources\model\OmniNotification.java
D:\OCB\projects\core-dto\src\main\java\com\ocb\oma\validation\BankCode.java
D:\OCB\projects\core-dto\src\main\java\com\ocb\oma\oomni\dto\PaymentItemStudentFeeDTO.java
D:\OCB\projects\core-dto\src\main\java\com\ocb\oma\resources\model\OmniFormDetails.java
D:\OCB\projects\core-dto\src\main\java\com\ocb\oma\dto\GeoLocationPoiDTO.java
D:\OCB\projects\core-dto\src\main\java\com\ocb\oma\resources\model\OmniForm.java
D:\OCB\projects\core-dto\src\main\java\com\ocb\oma\dto\FormDetailsDTO.java
D:\OCB\projects\core-dto\src\main\java\com\ocb\oma\validation\InterestRateType.java
D:\OCB\projects\core-dto\src\main\java\com\ocb\oma\dto\GeoLocationDTO.java
D:\OCB\projects\core-dto\src\main\java\com\ocb\oma\resources\model\OmniMobileDevice.java
D:\OCB\projects\core-dto\src\main\java\com\ocb\oma\validation\PaymentType.java
D:\OCB\projects\core-dto\src\main\java\com\ocb\oma\dto\ValidationMessageConstant.java
D:\OCB\projects\core-dto\src\main\java\com\ocb\oma\resources\model\TuitionFeeGroup.java
D:\OCB\projects\core-dto\src\main\java\com\ocb\oma\resources\model\OmniBankCitad.java
D:\OCB\projects\core-dto\src\main\java\com\ocb\oma\dto\AmountLimit.java
D:\OCB\projects\core-dto\src\main\java\com\ocb\oma\validation\impl\PaymentTypeValidator.java
D:\OCB\projects\core-dto\src\main\java\com\ocb\oma\dto\newFo\NewFoJobInfo.java
D:\OCB\projects\core-dto\src\main\java\com\ocb\oma\dto\PaymentTemplateDTO.java
D:\OCB\projects\core-dto\src\main\java\com\ocb\oma\oomni\dto\ServiceProviderComposDTO.java
D:\OCB\projects\core-dto\src\main\java\com\ocb\oma\dto\input\VerifyOtpToken.java
D:\OCB\projects\core-dto\src\main\java\com\ocb\oma\dto\MerchantAddressDTO.java
D:\OCB\projects\core-dto\src\main\java\com\ocb\oma\dto\StudentTuitionFeeDTO.java
D:\OCB\projects\core-dto\src\main\java\com\ocb\oma\oomni\dto\PaymentInfoDTO.java
D:\OCB\projects\core-dto\src\main\java\com\ocb\oma\dto\input\BreakDepositInputDTO.java
D:\OCB\projects\core-dto\src\main\java\com\ocb\oma\dto\input\CardRejectedInputDTO.java
D:\OCB\projects\core-dto\src\main\java\com\ocb\oma\oomni\dto\BillPaymentHistoryDTO.java
D:\OCB\projects\core-dto\src\main\java\com\ocb\oma\validation\impl\OcbDepositAccountNoValidator.java
D:\OCB\projects\core-dto\src\main\java\com\ocb\oma\validation\ServiceCode.java
D:\OCB\projects\core-dto\src\main\java\com\ocb\oma\dto\StatusesType.java
D:\OCB\projects\core-dto\src\main\java\com\ocb\oma\dto\CardStatementHeader.java
D:\OCB\projects\core-dto\src\main\java\com\ocb\oma\dto\input\QRcodeInfoDTO.java
D:\OCB\projects\core-dto\src\main\java\com\ocb\oma\dto\QD630PoliciesDTO.java
D:\OCB\projects\core-dto\src\main\java\com\ocb\oma\oomni\dto\ServiceProviderForBillPaymentDTO.java
D:\OCB\projects\core-dto\src\main\java\com\ocb\oma\validation\Validation.java
D:\OCB\projects\core-dto\src\main\java\com\ocb\oma\validation\Sample.java
D:\OCB\projects\core-dto\src\main\java\com\ocb\oma\oomni\dto\Notification.java
D:\OCB\projects\core-dto\src\main\java\com\ocb\oma\dto\input\TransactionInfo.java
D:\OCB\projects\core-dto\src\main\java\com\ocb\oma\resources\model\OmniActivity.java
D:\OCB\projects\core-dto\src\main\java\com\ocb\oma\validation\InStringValues.java
D:\OCB\projects\core-dto\src\main\java\com\ocb\oma\validation\impl\VNDValidator.java
D:\OCB\projects\core-dto\src\main\java\com\ocb\oma\dto\input\CardPaymentInfoInput.java
D:\OCB\projects\core-dto\src\main\java\com\ocb\oma\dto\CampaignInfo.java
D:\OCB\projects\core-dto\src\main\java\com\ocb\oma\dto\input\SendAuthorizationSmsOtpDTO.java
D:\OCB\projects\core-dto\src\main\java\com\ocb\oma\resources\model\OmniGiftCardMsgTemplate.java
D:\OCB\projects\core-dto\src\main\java\com\ocb\oma\dto\SampleUserDTO.java
D:\OCB\projects\core-dto\src\main\java\com\ocb\oma\validation\AccountNumber.java
D:\OCB\projects\core-dto\src\main\java\com\ocb\oma\dto\CreateDepositDTO.java
D:\OCB\projects\core-dto\src\main\java\com\ocb\oma\dto\input\ChangeUsernameInput.java
D:\OCB\projects\core-dto\src\main\java\com\ocb\oma\dto\UpcomingRepaymentDepositSubDTO.java
D:\OCB\projects\core-dto\src\main\java\com\ocb\oma\validation\OcbCurrentAccountNo.java
D:\OCB\projects\core-dto\src\main\java\com\ocb\oma\dto\TransferAccountDTO.java
D:\OCB\projects\core-dto\src\main\java\com\ocb\oma\validation\ServiceProviderCode.java
D:\OCB\projects\core-dto\src\main\java\com\ocb\oma\validation\impl\CIFValidator.java
D:\OCB\projects\core-dto\src\main\java\com\ocb\oma\validation\FinishDate.java
D:\OCB\projects\core-dto\src\main\java\com\ocb\oma\validation\impl\GiftCardInsertDTOValidator.java
D:\OCB\projects\core-dto\src\main\java\com\ocb\oma\constants\OmniConstants.java
D:\OCB\projects\core-dto\src\main\java\com\ocb\oma\dto\EVNParameter.java
D:\OCB\projects\core-dto\src\main\java\com\ocb\oma\dto\AccountSummaryDTO.java
D:\OCB\projects\core-dto\src\main\java\com\ocb\oma\validation\GroupCode.java
D:\OCB\projects\core-dto\src\main\java\com\ocb\oma\validation\impl\ProductDefaultDirectlyValidator.java
D:\OCB\projects\core-dto\src\main\java\com\ocb\oma\dto\UpcomingRepaymentDepositDTO.java
D:\OCB\projects\core-dto\src\main\java\com\ocb\oma\validation\impl\OcbCurrentAccountNoValidator.java
D:\OCB\projects\core-dto\src\main\java\com\ocb\oma\validation\AmountRange.java
D:\OCB\projects\core-dto\src\main\java\com\ocb\oma\validation\VND.java
D:\OCB\projects\core-dto\src\main\java\com\ocb\oma\validation\impl\RangeValidator.java
D:\OCB\projects\core-dto\src\main\java\com\ocb\oma\dto\input\ChangePasswordInputDTO.java
D:\OCB\projects\core-dto\src\main\java\com\ocb\oma\dto\newFo\NewFoContactInfo.java
D:\OCB\projects\core-dto\src\main\java\com\ocb\oma\dto\StudentDTO.java
D:\OCB\projects\core-dto\src\main\java\com\ocb\oma\dto\TransactionBlockedDTO.java
D:\OCB\projects\core-dto\src\main\java\com\ocb\oma\oomni\dto\CardStatementsDTO.java
D:\OCB\projects\core-dto\src\main\java\com\ocb\oma\dto\input\AuthorizationResponse.java
D:\OCB\projects\core-dto\src\main\java\com\ocb\oma\oomni\dto\ServiceForBillPaymentDTO.java
D:\OCB\projects\core-dto\src\main\java\com\ocb\oma\dto\input\DevicesFromMAInput.java
D:\OCB\projects\core-dto\src\main\java\com\ocb\oma\dto\CreditDTO.java
D:\OCB\projects\core-dto\src\main\java\com\ocb\oma\dto\PaymentDetails.java
D:\OCB\projects\core-dto\src\main\java\com\ocb\oma\validation\AccountId.java
D:\OCB\projects\core-dto\src\main\java\com\ocb\oma\validation\impl\AccountNunberValidator.java
D:\OCB\projects\core-dto\src\main\java\com\ocb\oma\dto\DepositProductDTO.java
D:\OCB\projects\core-dto\src\main\java\com\ocb\oma\dto\notification\NotificationMessageDTO.java
D:\OCB\projects\core-dto\src\main\java\com\ocb\oma\validation\Money.java
D:\OCB\projects\core-dto\src\main\java\com\ocb\oma\dto\GpsPositionDTO.java
D:\OCB\projects\core-dto\src\main\java\com\ocb\oma\oomni\CardRejectedDTO.java
D:\OCB\projects\core-dto\src\main\java\com\ocb\oma\validation\CardNumber.java
D:\OCB\projects\core-dto\src\main\java\com\ocb\oma\validation\impl\MoneyValidator.java
D:\OCB\projects\core-dto\src\main\java\com\ocb\oma\resources\model\OmniBankInfo.java
D:\OCB\projects\core-dto\src\main\java\com\ocb\oma\dto\input\CardAccountStatementHeaderInputDTO.java
D:\OCB\projects\core-dto\src\main\java\com\ocb\oma\validation\AccountNo.java
D:\OCB\projects\core-dto\src\main\java\com\ocb\oma\dto\TransferAutoBillOutputDTO.java
D:\OCB\projects\core-dto\src\main\java\com\ocb\oma\dto\PaymentType.java
D:\OCB\projects\core-dto\src\main\java\com\ocb\oma\dto\GiftCardInsertDTO.java
D:\OCB\projects\core-dto\src\main\java\com\ocb\oma\dto\input\QRcodeInfoInputDTO.java
D:\OCB\projects\core-dto\src\main\java\com\ocb\oma\dto\DepositDTO.java
D:\OCB\projects\core-dto\src\main\java\com\ocb\oma\dto\AccountOwner.java
D:\OCB\projects\core-dto\src\main\java\com\ocb\oma\oomni\dto\PostPaymentOutputDTO.java
D:\OCB\projects\core-dto\src\main\java\com\ocb\oma\dto\DeviceMobileDTO.java
D:\OCB\projects\core-dto\src\main\java\com\ocb\oma\dto\input\QRcodeInfoLstItems.java
D:\OCB\projects\core-dto\src\main\java\com\ocb\oma\oomni\dto\AccountInterestDTO.java
D:\OCB\projects\core-dto\src\main\java\com\ocb\oma\validation\impl\SummaryPeriodValidator.java
D:\OCB\projects\core-dto\src\main\java\com\ocb\oma\validation\ShortName.java
D:\OCB\projects\core-dto\src\main\java\com\ocb\oma\dto\OutputBaseDTO.java
D:\OCB\projects\core-dto\src\main\java\com\ocb\oma\dto\ListOfValueDTO.java
D:\OCB\projects\core-dto\src\main\java\com\ocb\oma\oomni\dto\DeleteAutoBillTransferOutputDTO.java
D:\OCB\projects\core-dto\src\main\java\com\ocb\oma\dto\ExecutedStatus.java
D:\OCB\projects\core-dto\src\main\java\com\ocb\oma\dto\FormDTO.java
D:\OCB\projects\core-dto\src\main\java\com\ocb\oma\dto\RecipientType.java
D:\OCB\projects\core-dto\src\main\java\com\ocb\oma\oomni\dto\AmountDTO.java
D:\OCB\projects\core-dto\src\main\java\com\ocb\oma\oomni\dto\ServiceDTO.java
D:\OCB\projects\core-dto\src\main\java\com\ocb\oma\dto\StatusesUpdateAvatar.java
D:\OCB\projects\core-dto\src\main\java\com\ocb\oma\validation\ProductDefaultDirectlyValid.java
D:\OCB\projects\core-dto\src\main\java\com\ocb\oma\dto\UserToken.java
D:\OCB\projects\core-dto\src\main\java\com\ocb\oma\resources\model\OmniProvinceInfo.java
D:\OCB\projects\core-dto\src\main\java\com\ocb\oma\dto\input\PaymentsInFutureInputDTO.java
D:\OCB\projects\core-dto\src\main\java\com\ocb\oma\dto\BankInfoDTO.java
D:\OCB\projects\core-dto\src\main\java\com\ocb\oma\validation\BranchCode.java
D:\OCB\projects\core-dto\src\main\java\com\ocb\oma\validation\OcbLoanAccountNo.java
D:\OCB\projects\core-dto\src\main\java\com\ocb\oma\oomni\dto\DevicesFromMAOut.java
D:\OCB\projects\core-dto\src\main\java\com\ocb\oma\oomni\dto\ServiceProviderDTO.java
D:\OCB\projects\core-dto\src\main\java\com\ocb\oma\validation\impl\ExternalAccountNoValidator.java
D:\OCB\projects\core-dto\src\main\java\com\ocb\oma\dto\CardBlockade.java
D:\OCB\projects\core-dto\src\main\java\com\ocb\oma\validation\impl\PostPaymentInputValidator.java
D:\OCB\projects\core-dto\src\main\java\com\ocb\oma\dto\newFo\NewFoBankingProductOnline.java
D:\OCB\projects\core-dto\src\main\java\com\ocb\oma\oomni\dto\AvatarInfoOutputDTO.java
D:\OCB\projects\core-dto\src\main\java\com\ocb\oma\validation\RecipientTypeVal.java
D:\OCB\projects\core-dto\src\main\java\com\ocb\oma\dto\RecipientDTO.java
D:\OCB\projects\core-dto\src\main\java\com\ocb\oma\validation\MinimalTransferAmount.java
D:\OCB\projects\core-dto\src\main\java\com\ocb\oma\dto\input\TransactionFeeInputDTO.java
D:\OCB\projects\core-dto\src\main\java\com\ocb\oma\dto\ResponseDTO.java
D:\OCB\projects\core-dto\src\main\java\com\ocb\oma\dto\LinkDTO.java
D:\OCB\projects\core-dto\src\main\java\com\ocb\oma\validation\impl\NoValidator.java
D:\OCB\projects\core-dto\src\main\java\com\ocb\oma\validation\FieldsMatched.java
D:\OCB\projects\core-dto\src\main\java\com\ocb\oma\dto\OmaExceptionDTO.java
D:\OCB\projects\core-dto\src\main\java\com\ocb\oma\resources\model\OmniLOV.java
D:\OCB\projects\core-dto\src\main\java\com\ocb\oma\dto\PaymentDetailDTO.java
D:\OCB\projects\core-dto\src\main\java\com\ocb\oma\dto\InstalmentTransactionHistoryDTO.java
D:\OCB\projects\core-dto\src\main\java\com\ocb\oma\dto\newFo\NewFoIDInfo.java
D:\OCB\projects\core-dto\src\main\java\com\ocb\oma\oomni\dto\ConfigStatusEcommerceCardOutput.java
D:\OCB\projects\core-dto\src\main\java\com\ocb\oma\dto\PaymentBasketDTO.java
D:\OCB\projects\core-dto\src\main\java\com\ocb\oma\oomni\dto\SendGiftCardOutputDTO.java
D:\OCB\projects\core-dto\src\main\java\com\ocb\oma\dto\PostListBasketDTO.java
D:\OCB\projects\core-dto\src\main\java\com\ocb\oma\validation\impl\SampleValidator.java
D:\OCB\projects\core-dto\src\main\java\com\ocb\oma\validation\RecurringPeriod.java
D:\OCB\projects\core-dto\src\main\java\com\ocb\oma\dto\AddRecipientOutputDTO.java
D:\OCB\projects\core-dto\src\main\java\com\ocb\oma\dto\PaymentsInFutureDTO.java
D:\OCB\projects\core-dto\src\main\java\com\ocb\oma\oomni\dto\GetListOfBasketInputDTO.java
D:\OCB\projects\core-dto\src\main\java\com\ocb\oma\dto\CardBlockadeInputDTO.java
